Categories:Internet
License:GPL-3.0-only
Web Site:https://mastalab.app/
Source Code:https://gitlab.com/tom79/mastalab
Issue Tracker:https://gitlab.com/tom79/mastalab/issues
Changelog:https://gitlab.com/tom79/mastalab/tags
LiberapayID:23077

Auto Name:Fedilab
Summary:Multi-account client for Mastodon
Description:
Fedilab allows you to manage several accounts (Mastodon/Pleroma/Peertube/GNU
Social/Friendica) and to switch from one to another by a simple click. You can
start to compose messages and finish them later by a mechanism of
auto-recording, and these messages can be scheduled. Stay aware due to a system
of push notifications when new content is available or when receiving a
notification on an account. Numerous features and settings parameters will allow
to tailor the behavior of the app with what you need.

'''Features'''

* Multi-account management
* Timelines (Federated / Local / Home)
* Actions on toots (mute, block, report, fave, boost/unboost, copy, translate, download media)
* Write a toot, include media, set visibility, use tags and spoilers
* Scheduled toots
* Searches
* Notifications
* Built-in browser incl. full-screen video
.

Repo Type:git
Repo:https://gitlab.com/tom79/mastalab.git

Build:1.3.7,34
    commit=1.3.7
    subdir=app
    gradle=yes

Build:1.3.8.1,37
    commit=1.3.8.1
    subdir=app
    gradle=yes

Build:1.3.9.1,39
    commit=1.3.9.1
    subdir=app
    gradle=yes

Build:1.4.3,43
    commit=1.4.3
    subdir=app
    gradle=yes

Build:1.4.4,44
    commit=1.4.4
    subdir=app
    gradle=yes

Build:1.4.5,45
    commit=1.4.5
    subdir=app
    gradle=yes

Build:1.4.6,46
    commit=1.4.6
    subdir=app
    gradle=yes

Build:1.4.7,47
    commit=1.4.7
    subdir=app
    gradle=yes

Build:1.4.8,48
    commit=1.4.8
    subdir=app
    gradle=fdroid

Build:1.4.9-beta-1,49
    commit=1.4.9-beta-1
    subdir=app
    gradle=fdroid

Build:1.4.9-beta-3,51
    commit=1.4.9-beta-3
    subdir=app
    gradle=fdroid

Build:1.4.9-beta-6,54
    commit=1.4.9-beta-6
    subdir=app
    gradle=fdroid

Build:1.4.9-rc-1,56
    commit=1.4.9-rc-1
    subdir=app
    gradle=fdroid

Build:1.4.9-rc-3,58
    commit=1.4.9-rc-3
    subdir=app
    gradle=fdroid

Build:1.5.0,60
    commit=1.5.0
    subdir=app
    gradle=fdroid

Build:1.5.3,63
    commit=1.5.3
    subdir=app
    gradle=fdroid

Build:1.5.4,64
    commit=1.5.4
    subdir=app
    gradle=fdroid

Build:1.5.5,65
    commit=1.5.5
    subdir=app
    gradle=fdroid
    prebuild=sed -i -e '/jcenter()/a\        google()' ../build.gradle && \
        sed -i -e '/safetynetImplementation/d' build.gradle

Build:1.5.6,66
    commit=1.5.6
    subdir=app
    gradle=fdroid
    prebuild=sed -i -e '/jcenter()/a\        google()' ../build.gradle && \
        sed -i -e '/safetynetImplementation/d' build.gradle

Build:1.5.7,67
    commit=1.5.7
    subdir=app
    gradle=fdroid
    prebuild=sed -i -e '/jcenter()/a\        google()' ../build.gradle && \
        sed -i -e '/safetynetImplementation/d' build.gradle

Build:1.5.9,69
    commit=1.5.9
    subdir=app
    gradle=fdroid
    prebuild=sed -i -e '/jcenter()/a\        google()' ../build.gradle && \
        sed -i -e '/safetynetImplementation/d' build.gradle

Build:1.6.0,76
    commit=1.6.0
    subdir=app
    gradle=fdroid
    prebuild=sed -i -e '/jcenter()/a\        google()' ../build.gradle && \
        sed -i -e '/safetynetImplementation/d' build.gradle

Build:1.6.2,80
    commit=1.6.2
    subdir=app
    gradle=fdroid
    prebuild=sed -i -e '/jcenter()/a\        google()' ../build.gradle && \
        sed -i -e '/safetynetImplementation/d' build.gradle

Build:1.6.3,82
    commit=1.6.3
    subdir=app
    gradle=fdroid
    prebuild=sed -i -e '/jcenter()/a\        google()' ../build.gradle && \
        sed -i -e '/safetynetImplementation/d' build.gradle

Build:1.6.6,87
    commit=1.6.6
    subdir=app
    gradle=fdroid
    prebuild=sed -i -e '/jcenter()/a\        google()' ../build.gradle && \
        sed -i -e '/playstoreImplementation/d' build.gradle

Build:1.6.7.3,94
    commit=1.6.7.3
    subdir=app
    gradle=fdroid
    prebuild=sed -i -e '/jcenter()/a\        google()' ../build.gradle && \
        sed -i -e '/playstoreImplementation/d' build.gradle

Build:1.6.8,96
    commit=1.6.8
    subdir=app
    gradle=fdroid
    prebuild=sed -i -e '/jcenter()/a\        google()' ../build.gradle && \
        sed -i -e '/playstoreImplementation/d' build.gradle

Build:1.6.9.1,98
    commit=1.6.9.1
    subdir=app
    gradle=fdroid
    prebuild=sed -i -e '/jcenter()/a\        google()' ../build.gradle && \
        sed -i -e '/playstoreImplementation/d' build.gradle

Build:1.7.0,100
    commit=1.7.0
    subdir=app
    gradle=fdroid
    prebuild=sed -i -e '/jcenter()/a\        google()' ../build.gradle && \
        sed -i -e '/playstoreImplementation/d' build.gradle

Build:1.7.1,101
    commit=1.7.1
    subdir=app
    gradle=fdroid
    prebuild=sed -i -e '/jcenter()/a\        google()' ../build.gradle && \
        sed -i -e '/playstoreImplementation/d' build.gradle

Build:1.7.2,102
    commit=1.7.2
    subdir=app
    gradle=fdroid
    prebuild=sed -i -e '/jcenter()/a\        google()' ../build.gradle && \
        sed -i -e '/playstoreImplementation/d' build.gradle

Build:1.7.3,103
    commit=1.7.3
    subdir=app
    gradle=fdroid
    prebuild=sed -i -e '/jcenter()/a\        google()' ../build.gradle && \
        sed -i -e '/playstoreImplementation/d' build.gradle

Build:1.7.4,104
    commit=1.7.4
    subdir=app
    gradle=fdroid
    prebuild=sed -i -e '/jcenter()/a\        google()' ../build.gradle && \
        sed -i -e '/playstoreImplementation/d' build.gradle

Build:1.7.5,105
    commit=1.7.5
    subdir=app
    gradle=fdroid
    prebuild=sed -i -e '/jcenter()/a\        google()' ../build.gradle && \
        sed -i -e '/playstoreImplementation/d' build.gradle

Build:1.7.6,106
    commit=1.7.6
    subdir=app
    gradle=fdroid
    prebuild=sed -i -e '/jcenter()/a\        google()' ../build.gradle && \
        sed -i -e '/playstoreImplementation/d' build.gradle

Build:1.7.8,108
    commit=1.7.8
    subdir=app
    gradle=fdroid
    prebuild=sed -i -e '/jcenter()/a\        google()' ../build.gradle && \
        sed -i -e '/playstoreImplementation/d' build.gradle

Build:1.7.9,110
    commit=1.7.9
    subdir=app
    gradle=fdroid
    prebuild=sed -i -e '/jcenter()/a\        google()' ../build.gradle && \
        sed -i -e '/playstoreImplementation/d' build.gradle

Build:1.7.9.1,111
    commit=1.7.9.1
    subdir=app
    gradle=fdroid
    prebuild=sed -i -e '/jcenter()/a\        google()' ../build.gradle && \
        sed -i -e '/playstoreImplementation/d' build.gradle

Build:1.8.2,114
    commit=1.8.2
    subdir=app
    gradle=fdroid
    prebuild=sed -i -e '/jcenter()/a\        google()' ../build.gradle && \
        sed -i -e '/playstoreImplementation/d' build.gradle

Build:1.8.3,115
    commit=1.8.3
    subdir=app
    gradle=fdroid
    prebuild=sed -i -e '/jcenter()/a\        google()' ../build.gradle && \
        sed -i -e '/playstoreImplementation/d' build.gradle

Build:1.8.4,116
    commit=1.8.4
    subdir=app
    gradle=fdroid
    prebuild=sed -i -e '/jcenter()/a\        google()' ../build.gradle && \
        sed -i -e '/playstoreImplementation/d' build.gradle

Build:1.8.5,117
    commit=1.8.5
    subdir=app
    gradle=fdroid
    prebuild=sed -i -e '/jcenter()/a\        google()' ../build.gradle && \
        sed -i -e '/playstoreImplementation/d' build.gradle

Build:1.8.6,118
    commit=1.8.6
    subdir=app
    gradle=fdroid
    prebuild=sed -i -e '/jcenter()/a\        google()' ../build.gradle && \
        sed -i -e '/playstoreImplementation/d' build.gradle

Build:1.8.7.1,120
    commit=1.8.7.1
    subdir=app
    gradle=fdroid
    prebuild=sed -i -e '/jcenter()/a\        google()' ../build.gradle && \
        sed -i -e '/playstoreImplementation/d' build.gradle

Build:1.8.8,121
    commit=1.8.8
    subdir=app
    gradle=fdroid
    prebuild=sed -i -e '/jcenter()/a\        google()' ../build.gradle && \
        sed -i -e '/playstoreImplementation/d' build.gradle

Build:1.9.0,123
    commit=1.9.0
    subdir=app
    gradle=fdroid
    prebuild=sed -i -e '/jcenter()/a\        google()' ../build.gradle && \
        sed -i -e '/playstoreImplementation/d' build.gradle

Build:1.10.1,125
    commit=1.10.1
    subdir=app
    gradle=fdroid
    prebuild=sed -i -e '/jcenter()/a\        google()' ../build.gradle && \
        sed -i -e '/playstoreImplementation/d' build.gradle

Build:1.10.3,127
    commit=1.10.3
    subdir=app
    gradle=fdroid
    prebuild=sed -i -e '/jcenter()/a\        google()' ../build.gradle && \
        sed -i -e '/playstoreImplementation/d' build.gradle

Build:1.10.4,129
    commit=1.10.4
    subdir=app
    gradle=fdroid
    prebuild=sed -i -e '/jcenter()/a\        google()' ../build.gradle && \
        sed -i -e '/playstoreImplementation/d' build.gradle

Build:1.10.5,130
    commit=1.10.5
    subdir=app
    gradle=fdroid
    prebuild=sed -i -e '/jcenter()/a\        google()' ../build.gradle && \
        sed -i -e '/playstoreImplementation/d' build.gradle

Build:1.11.0,132
    commit=1.11.0
    subdir=app
    gradle=fdroid
    prebuild=sed -i -e '/jcenter()/a\        google()' ../build.gradle && \
        sed -i -e '/playstoreImplementation/d' build.gradle

Build:1.12.2,136
    commit=1.12.2
    subdir=app
    gradle=fdroid
    prebuild=sed -i -e '/jcenter()/a\        google()' ../build.gradle && \
        sed -i -e '/playstoreImplementation/d' build.gradle

Build:1.13.0,138
    commit=1.13.0
    subdir=app
    gradle=fdroid
    prebuild=sed -i -e '/jcenter()/a\        google()' ../build.gradle && \
        sed -i -e '/playstoreImplementation/d' build.gradle

Build:1.13.1,139
    commit=1.13.1
    subdir=app
    gradle=fdroid
    prebuild=sed -i -e '/jcenter()/a\        google()' ../build.gradle && \
        sed -i -e '/playstoreImplementation/d' build.gradle

Build:1.13.3,141
    commit=1.13.3
    subdir=app
    gradle=fdroid
    prebuild=sed -i -e '/jcenter()/a\        google()' ../build.gradle && \
        sed -i -e '/playstoreImplementation/d' build.gradle

Build:1.13.4,142
    commit=1.13.4
    subdir=app
    gradle=fdroid
    prebuild=sed -i -e '/jcenter()/a\        google()' ../build.gradle && \
        sed -i -e '/playstoreImplementation/d' build.gradle

Build:1.13.6,144
    commit=1.13.6
    subdir=app
    gradle=fdroid
    prebuild=sed -i -e '/jcenter()/a\        google()' ../build.gradle && \
        sed -i -e '/playstoreImplementation/d' build.gradle

Build:1.14.0,145
    commit=1.14.0
    subdir=app
    gradle=fdroid
    prebuild=sed -i -e '/jcenter()/a\        google()' ../build.gradle && \
        sed -i -e '/playstoreImplementation/d' build.gradle

Build:1.14.2,147
    commit=1.14.2
    subdir=app
    gradle=fdroid
    prebuild=sed -i -e '/jcenter()/a\        google()' ../build.gradle && \
        sed -i -e '/playstoreImplementation/d' build.gradle

Build:1.14.3,148
    commit=1.14.3
    subdir=app
    gradle=fdroid
    prebuild=sed -i -e '/jcenter()/a\        google()' ../build.gradle && \
        sed -i -e '/playstoreImplementation/d' build.gradle

Build:1.15.1,150
    commit=1.15.1
    subdir=app
    gradle=fdroid
    prebuild=sed -i -e '/jcenter()/a\        google()' ../build.gradle && \
        sed -i -e '/playstoreImplementation/d' build.gradle

Build:1.15.2,151
    commit=1.15.2
    subdir=app
    gradle=fdroid
    prebuild=sed -i -e '/jcenter()/a\        google()' ../build.gradle && \
        sed -i -e '/playstoreImplementation/d' build.gradle

Build:1.15.4,153
    commit=1.15.4
    subdir=app
    gradle=fdroid
    prebuild=sed -i -e '/jcenter()/a\        google()' ../build.gradle && \
        sed -i -e '/playstoreImplementation/d' build.gradle

Build:1.16.0,155
    commit=1.16.0
    subdir=app
    gradle=fdroid
    prebuild=sed -i -e '/jcenter()/a\        google()' ../build.gradle && \
        sed -i -e '/playstoreImplementation/d' build.gradle

Build:1.17.1,157
    commit=1.17.1
    subdir=app
    gradle=fdroid
    prebuild=sed -i -e '/jcenter()/a\        google()' ../build.gradle && \
        sed -i -e '/playstoreImplementation/d' build.gradle

Build:1.17.2,158
    commit=1.17.2
    subdir=app
    gradle=fdroid
    prebuild=sed -i -e '/jcenter()/a\        google()' ../build.gradle && \
        sed -i -e '/playstoreImplementation/d' build.gradle

Build:1.17.3,159
    commit=1.17.3
    subdir=app
    gradle=fdroid
    prebuild=sed -i -e '/jcenter()/a\        google()' ../build.gradle && \
        sed -i -e '/playstoreImplementation/d' build.gradle

Build:1.17.6,163
    commit=1.17.6
    subdir=app
    gradle=fdroid
    prebuild=sed -i -e '/jcenter()/a\        google()' ../build.gradle && \
        sed -i -e '/playstoreImplementation/d' build.gradle

Build:1.17.7,164
    commit=1.17.7
    subdir=app
    gradle=fdroid
    prebuild=sed -i -e '/jcenter()/a\        google()' ../build.gradle && \
        sed -i -e '/playstoreImplementation/d' build.gradle

Build:1.17.8,165
    commit=1.17.8
    subdir=app
    gradle=fdroid
    prebuild=sed -i -e '/jcenter()/a\        google()' ../build.gradle && \
        sed -i -e '/playstoreImplementation/d' build.gradle

Build:1.17.9,166
    commit=1.17.9
    subdir=app
    gradle=fdroid
    prebuild=sed -i -e '/jcenter()/a\        google()' ../build.gradle && \
        sed -i -e '/playstoreImplementation/d' build.gradle

Build:1.18.0,168
    commit=1.18.0
    subdir=app
    gradle=fdroid
    prebuild=sed -i -e '/jcenter()/a\        google()' ../build.gradle && \
        sed -i -e '/playstoreImplementation/d' build.gradle

Build:1.18.2,170
    commit=1.18.2
    subdir=app
    gradle=fdroid
    prebuild=sed -i -e '/jcenter()/a\        google()' ../build.gradle && \
        sed -i -e '/playstoreImplementation/d' build.gradle

Build:1.19.1,175
    commit=1.19.1
    subdir=app
    gradle=fdroid
    prebuild=sed -i -e '/jcenter()/a\        google()' ../build.gradle && \
        sed -i -e '/playstoreImplementation/d' build.gradle

Build:1.19.2,178
    commit=1.19.2
    subdir=app
    gradle=fdroid
    prebuild=sed -i -e '/jcenter()/a\        google()' ../build.gradle && \
        sed -i -e '/playstoreImplementation/d' build.gradle

Build:1.20.0,181
    commit=1.20.0
    subdir=app
    gradle=fdroid
    prebuild=sed -i -e '/jcenter()/a\        google()' ../build.gradle && \
        sed -i -e '/playstoreImplementation/d' build.gradle

Build:1.30.0,185
    commit=1.30.0
    subdir=app
    gradle=fdroid
    prebuild=sed -i -e '/jcenter()/a\        google()' ../build.gradle && \
        sed -i -e '/playstoreImplementation/d' build.gradle

Build:1.30.1,186
    commit=1.30.1
    subdir=app
    gradle=fdroid
    prebuild=sed -i -e '/jcenter()/a\        google()' ../build.gradle && \
        sed -i -e '/playstoreImplementation/d' build.gradle

Build:1.30.2,188
    commit=1.30.2
    subdir=app
    gradle=fdroid
    prebuild=sed -i -e '/jcenter()/a\        google()' ../build.gradle && \
        sed -i -e '/playstoreImplementation/d' build.gradle

Build:1.30.3,189
    commit=1.30.3
    subdir=app
    gradle=fdroid
    prebuild=sed -i -e '/jcenter()/a\        google()' ../build.gradle && \
        sed -i -e '/playstoreImplementation/d' build.gradle

Build:1.31.1,193
    commit=1.31.1
    subdir=app
    gradle=fdroid
    prebuild=sed -i -e '/jcenter()/a\        google()' ../build.gradle && \
        sed -i -e '/playstoreImplementation/d' build.gradle

Build:1.34.0,196
    commit=1.34.0
    subdir=app
    gradle=fdroid
    prebuild=sed -i -e '/jcenter()/a\        google()' ../build.gradle && \
        sed -i -e '/playstoreImplementation/d' build.gradle

Build:1.35.0,197
    commit=1.35.0
    subdir=app
    gradle=fdroid
    prebuild=sed -i -e '/jcenter()/a\        google()' ../build.gradle && \
        sed -i -e '/playstoreImplementation/d' build.gradle

Build:1.36.0,198
    commit=1.36.0
    subdir=app
    gradle=fdroid
    prebuild=sed -i -e '/jcenter()/a\        google()' ../build.gradle && \
        sed -i -e '/playstoreImplementation/d' build.gradle

Build:1.37.0,199
    commit=1.37.0
    subdir=app
    gradle=fdroid
    prebuild=sed -i -e '/jcenter()/a\        google()' ../build.gradle && \
        sed -i -e '/playstoreImplementation/d' build.gradle

Build:1.39.0,201
    commit=1.39.0
    subdir=app
    gradle=fdroid
    prebuild=sed -i -e '/jcenter()/a\        google()' ../build.gradle && \
        sed -i -e '/playstoreImplementation/d' build.gradle

Build:1.40.0,202
    commit=1.40.0
    subdir=app
    gradle=fdroid
    prebuild=sed -i -e '/jcenter()/a\        google()' ../build.gradle && \
        sed -i -e '/playstoreImplementation/d' build.gradle

Build:1.41.2,205
    commit=1.41.2
    subdir=app
    gradle=fdroid
    prebuild=sed -i -e '/jcenter()/a\        google()' ../build.gradle && \
        sed -i -e '/playstoreImplementation/d' build.gradle

Build:1.50.1,210
    commit=1.50.1
    subdir=app
    gradle=fdroid
    prebuild=sed -i -e '/jcenter()/a\        google()' ../build.gradle && \
        sed -i -e '/playstoreImplementation/d' build.gradle

Build:1.50.3,213
    commit=1.50.3
    subdir=app
    gradle=fdroid
    prebuild=sed -i -e '/jcenter()/a\        google()' ../build.gradle && \
        sed -i -e '/playstoreImplementation/d' build.gradle

Build:1.60.0,214
    commit=1.60.0
    subdir=app
    gradle=fdroid
    prebuild=sed -i -e '/jcenter()/a\        google()' ../build.gradle && \
        sed -i -e '/playstoreImplementation/d' build.gradle

Build:1.61.1,216
    commit=1.61.1
    subdir=app
    gradle=fdroid
    prebuild=sed -i -e '/jcenter()/a\        google()' ../build.gradle && \
        sed -i -e '/playstoreImplementation/d' build.gradle

Build:1.62.0,218
    commit=1.62.0
    subdir=app
    gradle=fdroid
    prebuild=sed -i -e '/jcenter()/a\        google()' ../build.gradle && \
        sed -i -e '/playstoreImplementation/d' build.gradle

Build:1.62.1,219
    commit=1.62.1
    subdir=app
    gradle=fdroid
    prebuild=sed -i -e '/jcenter()/a\        google()' ../build.gradle && \
        sed -i -e '/playstoreImplementation/d' build.gradle

Build:1.63.0,222
    commit=1.63.0
    subdir=app
    gradle=fdroid
    prebuild=sed -i -e '/jcenter()/a\        google()' ../build.gradle && \
        sed -i -e '/playstoreImplementation/d' build.gradle

Build:1.64.0,224
    commit=1.64.0
    subdir=app
    gradle=fdroid
    prebuild=sed -i -e '/jcenter()/a\        google()' ../build.gradle && \
        sed -i -e '/playstoreImplementation/d' build.gradle

Build:1.64.1,225
    commit=1.64.1
    subdir=app
    gradle=fdroid
    prebuild=sed -i -e '/jcenter()/a\        google()' ../build.gradle && \
        sed -i -e '/playstoreImplementation/d' build.gradle

Build:1.65.0,227
    commit=1.65.0
    subdir=app
    gradle=fdroid
    prebuild=sed -i -e '/jcenter()/a\        google()' ../build.gradle && \
        sed -i -e '/playstoreImplementation/d' build.gradle

Build:1.65.1,228
    commit=1.65.1
    subdir=app
    gradle=fdroid
    prebuild=sed -i -e '/jcenter()/a\        google()' ../build.gradle && \
        sed -i -e '/playstoreImplementation/d' build.gradle

Build:1.66.0,230
    commit=1.66.0
    subdir=app
    gradle=fdroid
    prebuild=sed -i -e '/jcenter()/a\        google()' ../build.gradle && \
        sed -i -e '/playstoreImplementation/d' build.gradle

Build:1.66.1,231
    commit=1.66.1
    subdir=app
    gradle=fdroid
    prebuild=sed -i -e '/jcenter()/a\        google()' ../build.gradle && \
        sed -i -e '/playstoreImplementation/d' build.gradle

Build:1.67.0,232
    commit=1.67.0
    subdir=app
    gradle=fdroid
    prebuild=sed -i -e '/jcenter()/a\        google()' ../build.gradle && \
        sed -i -e '/playstoreImplementation/d' build.gradle

Build:1.67.1,233
    commit=1.67.1
    subdir=app
    gradle=fdroid
    prebuild=sed -i -e '/jcenter()/a\        google()' ../build.gradle && \
        sed -i -e '/playstoreImplementation/d' build.gradle

Build:1.70.0,235
    commit=1.70.0
    subdir=app
    gradle=fdroid
    prebuild=sed -i -e '/jcenter()/a\        google()' ../build.gradle && \
        sed -i -e '/playstoreImplementation/d' build.gradle

Build:1.71.0,236
    commit=1.71.0
    subdir=app
    gradle=fdroid
    prebuild=sed -i -e '/jcenter()/a\        google()' ../build.gradle && \
        sed -i -e '/playstoreImplementation/d' build.gradle

Build:1.71.1,237
    commit=1.71.1
    subdir=app
    gradle=fdroid
    prebuild=sed -i -e '/jcenter()/a\        google()' ../build.gradle && \
        sed -i -e '/playstoreImplementation/d' build.gradle

Build:1.72.0,239
    commit=1.72.0
    subdir=app
    gradle=fdroid
    prebuild=sed -i -e '/jcenter()/a\        google()' ../build.gradle && \
        sed -i -e '/playstoreImplementation/d' build.gradle

Build:1.72.1,240
    commit=1.72.1
    subdir=app
    gradle=fdroid
    prebuild=sed -i -e '/jcenter()/a\        google()' ../build.gradle && \
        sed -i -e '/playstoreImplementation/d' build.gradle

Build:1.73.0,241
    commit=1.73.0
    subdir=app
    gradle=fdroid
    prebuild=sed -i -e '/jcenter()/a\        google()' ../build.gradle && \
        sed -i -e '/playstoreImplementation/d' build.gradle

Build:1.74.0,244
    commit=1.74.0
    subdir=app
    gradle=fdroid
    prebuild=sed -i -e '/jcenter()/a\        google()' ../build.gradle && \
        sed -i -e '/playstoreImplementation/d' build.gradle

Auto Update Mode:Version %v
Update Check Mode:Tags ^[0-9.]+$
Current Version:1.74.0
Current Version Code:244
